…
If we think of the coordinate variable (representing crash location) as one we have 52 variables.
Most of the variables are of the character-type and unfortunately few are of the numeric type. A regression-based prediciton model will therefore most likely not be fit for this dataset.

Here’s an example of how text heavy some of the variables are:

bike_crash %>% count(crash_type, sort = T) 

## # A tibble: 65 × 2
##    crash_type                                                n
##    <chr>                                                 <int>
##  1 <NA>                                                   2580
##  2 Motorist Drive Out - Sign-Controlled Intersection      1078
##  3 Motorist Left Turn - Opposite Direction                 911
##  4 Motorist Drive Out - Commercial Driveway / Alley        742
##  5 Bicyclist Ride Through - Sign-Controlled Intersection   580
##  6 Non-Roadway                                             538
##  7 Motorist Right Turn - Same Direction                    532
##  8 Bicyclist Left Turn - Same Direction                    451
##  9 Motorist Overtaking - Undetected Bicyclist              439
## 10 Bicyclist Ride Through - Signalized Intersection        404
## # … with 55 more rows
…
